{
    "frames": [
        {
            "filename": "sprite1",
            "frame": {
                "x": 8,
                "y": 2,
                "w": 32,
                "h": 49
            },
            "rotated": false,
            "trimmed": false,
            "spriteSourceSize": {
                "x": 0,
                "y": 0,
                "w": 32,
                "h": 49
            },
            "sourceSize": {
                "w": 32,
                "h": 49
            }
        },
        {
            "filename": "sprite2",
            "frame": {
                "x": 101,
                "y": 13,
                "w": 87,
                "h": 45
            },
            "rotated": false,
            "trimmed": false,
            "spriteSourceSize": {
                "x": 0,
                "y": 0,
                "w": 87,
                "h": 45
            },
            "sourceSize": {
                "w": 87,
                "h": 45
            }
        },
        {
            "filename": "sprite3",
            "frame": {
                "x": 56,
                "y": 15,
                "w": 28,
                "h": 45
            },
            "rotated": false,
            "trimmed": false,
            "spriteSourceSize": {
                "x": 0,
                "y": 0,
                "w": 28,
                "h": 45
            },
            "sourceSize": {
                "w": 28,
                "h": 45
            }
        },
        {
            "filename": "sprite4",
            "frame": {
                "x": 156,
                "y": 70,
                "w": 34,
                "h": 49
            },
            "rotated": false,
            "trimmed": false,
            "spriteSourceSize": {
                "x": 0,
                "y": 0,
                "w": 34,
                "h": 49
            },
            "sourceSize": {
                "w": 34,
                "h": 49
            }
        },
        {
            "filename": "sprite5",
            "frame": {
                "x": 4,
                "y": 75,
                "w": 44,
                "h": 55
            },
            "rotated": false,
            "trimmed": false,
            "spriteSourceSize": {
                "x": 0,
                "y": 0,
                "w": 44,
                "h": 55
            },
            "sourceSize": {
                "w": 44,
                "h": 55
            }
        },
        {
            "filename": "sprite6",
            "frame": {
                "x": 102,
                "y": 79,
                "w": 42,
                "h": 38
            },
            "rotated": false,
            "trimmed": false,
            "spriteSourceSize": {
                "x": 0,
                "y": 0,
                "w": 42,
                "h": 38
            },
            "sourceSize": {
                "w": 42,
                "h": 38
            }
        },
        {
            "filename": "sprite7",
            "frame": {
                "x": 65,
                "y": 84,
                "w": 14,
                "h": 42
            },
            "rotated": false,
            "trimmed": false,
            "spriteSourceSize": {
                "x": 0,
                "y": 0,
                "w": 14,
                "h": 42
            },
            "sourceSize": {
                "w": 14,
                "h": 42
            }
        },
        {
            "filename": "sprite8",
            "frame": {
                "x": 5,
                "y": 137,
                "w": 39,
                "h": 46
            },
            "rotated": false,
            "trimmed": false,
            "spriteSourceSize": {
                "x": 0,
                "y": 0,
                "w": 39,
                "h": 46
            },
            "sourceSize": {
                "w": 39,
                "h": 46
            }
        },
        {
            "filename": "sprite9",
            "frame": {
                "x": 50,
                "y": 142,
                "w": 34,
                "h": 39
            },
            "rotated": false,
            "trimmed": false,
            "spriteSourceSize": {
                "x": 0,
                "y": 0,
                "w": 34,
                "h": 39
            },
            "sourceSize": {
                "w": 34,
                "h": 39
            }
        },
        {
            "filename": "sprite10",
            "frame": {
                "x": 149,
                "y": 144,
                "w": 48,
                "h": 44
            },
            "rotated": false,
            "trimmed": false,
            "spriteSourceSize": {
                "x": 0,
                "y": 0,
                "w": 48,
                "h": 44
            },
            "sourceSize": {
                "w": 48,
                "h": 44
            }
        },
        {
            "filename": "sprite11",
            "frame": {
                "x": 88,
                "y": 153,
                "w": 59,
                "h": 28
            },
            "rotated": false,
            "trimmed": false,
            "spriteSourceSize": {
                "x": 0,
                "y": 0,
                "w": 59,
                "h": 28
            },
            "sourceSize": {
                "w": 59,
                "h": 28
            }
        }
    ],
    "meta": {
        "app": "https://www.leshylabs.com/apps/sstool/",
        "version": "Leshy SpriteSheet Tool v0.8.4",
        "image": "spritesheet.png",
        "size": {
            "w": 200,
            "h": 189
        },
        "scale": 1
    }
}